State,Count,Fraction,LongL,LongH,LatL,LatH
Alabama,413618,0.019,-84.51,-88.28,30.13,35
Alaska,73397,0.003,-130,173,54.4,71.5
Arizona,532206,0.024,-109.3,-114.5,31.2,37
Arkansas,249274,0.011,-89.41,-94.42,33,36.3
California,1851470,0.084,-114.8,-124.24,32.3,42
Colorado,413271,0.019,-102,-109,37,41
Connecticut,213420,0.01,-71.47,-73.44,40.58,42.03
Delaware,78099,0.004,-75.2,-75.47,38.27,39.5
District of Columbia,29825,0.001,-76.91,-77.12,38.79,38.99
Florida,1583697,0.072,-79.48,-87.38,24.3,31
Georgia,752882,0.034,-81,-85.53,30.31,35
Hawaii,121007,0.006,-154.4,-162,16.55,23
Idaho,132395,0.006,-111,-117,42,49
Illinois,721575,0.033,-87.3,-91.3,36.58,42.3
Indiana,476283,0.022,-84.49,-88.4,37.47,41.46
Iowa,231655,0.011,-89.5,-96.31,40.36,43.3
Kansas,221206,0.01,-94.38,-102.34,37,40
Kentucky,330599,0.015,-81.58,-89.34,36.3,39.09
Louisiana,330145,0.015,-89,-94,29,33
Maine,127234,0.006,-66.57,-71.07,43.04,47.28
Maryland,437762,0.02,-75.04,-79.33,37.53,39.43
Massachusetts,379772,0.017,-69.57,-73.3,41.1,42.53
Michigan,658469,0.03,-82.26,-90.31,41.41,47.3
Minnesota,369149,0.017,-89.34,-97.12,43.34,49.23
Mississippi,220389,0.01,-88.07,-91.41,30.13,35
Missouri,494346,0.023,-89.06,-95.42,36,40.35
Montana,99646,0.005,-104.2,-116.2,44.26,49
Nebraska,143375,0.007,-95.25,-104,40,43
Nevada,228027,0.01,-114,-120,35,42
New Hampshire,113660,0.005,-70.37,-72.37,42.4,45.18
New Jersey,428396,0.02,-73.53,-75.35,38.55,41.21
New Mexico,171528,0.008,-103,-109,31.2,37
New York,892221,0.041,-71.47,-79.45,40.29,45
North Carolina,775020,0.035,-75.3,-84.15,34,36.21
North Dakota,57395,0.003,-97,-104,45.55,49
Ohio,866481,0.039,-80.32,-84.49,38.27,41.58
Oklahoma,337571,0.015,-94.29,-103,33.35,37
Oregon,331632,0.015,-116.45,-124.3,42,46.15
Pennsylvania,939069,0.043,-74.43,-80.31,39.43,42
Puerto Rico,93240,0.004,-65.68,-67.23,17.96,18.47
Rhode Island,71966,0.003,-71.08,-71.53,41.18,42.01
South Carolina,417554,0.019,-78.3,-83.2,32.04,35.12
South Dakota,72030,0.003,-98.28,-104.03,42.29,45.56
Tennessee,506340,0.023,-81.37,-90.28,35,36.41
Texas,1680418,0.077,-93.31,-106.38,25.5,36.3
Utah,151719,0.007,-109,-114,37,42
Vermont,127234,0.006,-71.28,-73.26,42.44,45
Virginia,781388,0.036,-75.13,-83.37,36.31,39.37
Washington,603623,0.027,-116.57,-124.48,45.32,49
West Virginia,167355,0.008,-77.4,-82.4,37.1,40.4
Wisconsin,413723,0.019,-86.49,-92.54,42.3,47.03
Wyoming,49708,0.002,-104.3,-111.03,41,45